Visualisation Gallery
…
Select a sample of individuals

Sample n random individuals to explore (Note: Possibly not
representative)

For example, we can sample 20 random individuals, and then plot them.
(perhaps change sample_n_keys into
sample_id.)

wages %>%
  sample_n_keys(size = 20)
#> # A tsibble: 132 x 9 [!]
#> # Key:       id [20]
#>       id ln_wages    xp   ged xp_since_ged black hispanic high_grade
#>    <int>    <dbl> <dbl> <int>        <dbl> <int>    <int>      <int>
#>  1  7173     1.58 0.247     0            0     1        0         10
#>  2  7173     1.96 0.542     0            0     1        0         10
#>  3  7173     1.68 1.41      0            0     1        0         10
#>  4  7173     1.75 1.47      0            0     1        0         10
#>  5  7173     1.48 1.93      0            0     1        0         10
#>  6  9613     1.60 0.375     0            0     0        0         11
#>  7  9613     1.69 1.38      0            0     0        0         11
#>  8  9613     1.48 2.74      0            0     0        0         11
#>  9  9613     1.37 3.68      0            0     0        0         11
#> 10  9613     1.30 4.01      0            0     0        0         11
#> # ℹ 122 more rows
#> # ℹ 1 more variable: unemploy_rate <dbl>
…
Filter only those with certain number of observations

There was a variety of the number of observations in the data - some
with only a few, and some with many. We can filter by the number of the
observations in the data using add_n_obs(), which adds a
new column, n_obs, the number of observations for each
key.

wages %>%
  add_n_obs()
#> # A tsibble: 6,402 x 10 [!]
#> # Key:       id [888]
#>       id    xp n_obs ln_wages   ged xp_since_ged black hispanic high_grade
#>    <int> <dbl> <int>    <dbl> <int>        <dbl> <int>    <int>      <int>
#>  1    31 0.015     8     1.49     1        0.015     0        1          8
#>  2    31 0.715     8     1.43     1        0.715     0        1          8
#>  3    31 1.73      8     1.47     1        1.73      0        1          8
#>  4    31 2.77      8     1.75     1        2.77      0        1          8
#>  5    31 3.93      8     1.93     1        3.93      0        1          8
#>  6    31 4.95      8     1.71     1        4.95      0        1          8
#>  7    31 5.96      8     2.09     1        5.96      0        1          8
#>  8    31 6.98      8     2.13     1        6.98      0        1          8
#>  9    36 0.315    10     1.98     1        0.315     0        0          9
#> 10    36 0.983    10     1.80     1        0.983     0        0          9
#> # ℹ 6,392 more rows
#> # ℹ 1 more variable: unemploy_rate <dbl>
…
You can explore the available features, see the function References

Plot individuals with negative slope

We can find those individuals who have a negative slope using
key_slope. For more detail on key_slope, see
the Exploratory
Modelling vignette.

wages %>% key_slope(ln_wages ~ xp)
#> # A tibble: 888 × 3
#>       id .intercept .slope_xp
#>    <int>      <dbl>     <dbl>
#>  1    31       1.41    0.101 
#>  2    36       2.04    0.0588
#>  3    53       2.29   -0.358 
#>  4   122       1.93    0.0374
#>  5   134       2.03    0.0831
#>  6   145       1.59    0.0469
#>  7   155       1.66    0.0867
#>  8   173       1.61    0.100 
#>  9   206       1.73    0.180 
#> 10   207       1.62    0.0884
#> # ℹ 878 more rows
…
We could then do this along other features of a five number
summary:

wages_five <- wages %>%
    features(ln_wages, feat_five_num) %>%
  # ensures that we keep the data as a `tsibble`
  left_join(x = wages, y = ., by = "id")

wages_five
#> # A tsibble: 6,402 x 14 [!]
#> # Key:       id [888]
#>       id ln_wages    xp   ged xp_since_ged black hispanic high_grade
#>    <int>    <dbl> <dbl> <int>        <dbl> <int>    <int>      <int>
#>  1    31     1.49 0.015     1        0.015     0        1          8
#>  2    31     1.43 0.715     1        0.715     0        1          8
#>  3    31     1.47 1.73      1        1.73      0        1          8
#>  4    31     1.75 2.77      1        2.77      0        1          8
#>  5    31     1.93 3.93      1        3.93      0        1          8
#>  6    31     1.71 4.95      1        4.95      0        1          8
#>  7    31     2.09 5.96      1        5.96      0        1          8
#>  8    31     2.13 6.98      1        6.98      0        1          8
#>  9    36     1.98 0.315     1        0.315     0        0          9
#> 10    36     1.80 0.983     1        0.983     0        0          9
#> # ℹ 6,392 more rows
#> # ℹ 6 more variables: unemploy_rate <dbl>, min <dbl>, q25 <dbl>, med <dbl>,
#> #   q75 <dbl>, max <dbl>
…
